Parte 1/part1 - 8BitCounter-20240918T125345Z-001/part1 - 8BitCounter/simulation/qsim/T_flip_flop.msim.vcd
$comment
	File created using the following command:
		vcd file T_flip_flop.msim.vcd -direction
$end
$date
	Sun Sep 15 11:47:57 2024
$end
$version
	ModelSim Version 10.5b
$end
$timescale
	1ps
$end

$scope module contador_vhd_vec_tst $end
$var wire 1 ! Clear $end
$var wire 1 " Clk $end
$var wire 1 # Enable $end
$var wire 1 $ Q0 $end
$var wire 1 % Q1 $end
$var wire 1 & Q2 $end
$var wire 1 ' Q3 $end
$var wire 1 ( Q4 $end
$var wire 1 ) Q5 $end
$var wire 1 * Q6 $end
$var wire 1 + Q7 $end

$scope module i1 $end
$var wire 1 , gnd $end
$var wire 1 - vcc $end
$var wire 1 . unknown $end
$var wire 1 / devoe $end
$var wire 1 0 devclrn $end
$var wire 1 1 devpor $end
$var wire 1 2 ww_devoe $end
$var wire 1 3 ww_devclrn $end
$var wire 1 4 ww_devpor $end
$var wire 1 5 ww_Q0 $end
$var wire 1 6 ww_Q1 $end
$var wire 1 7 ww_Q2 $end
$var wire 1 8 ww_Q3 $end
$var wire 1 9 ww_Q4 $end
$var wire 1 : ww_Q5 $end
$var wire 1 ; ww_Q6 $end
$var wire 1 < ww_Q7 $end
$var wire 1 = ww_Enable $end
$var wire 1 > ww_Clear $end
$var wire 1 ? ww_Clk $end
$var wire 1 @ \~QUARTUS_CREATED_GND~I_combout\ $end
$var wire 1 A \Clk~input_o\ $end
$var wire 1 B \Clk~inputCLKENA0_outclk\ $end
$var wire 1 C \Enable~input_o\ $end
$var wire 1 D \Clear~input_o\ $end
$var wire 1 E \tff1|teste~0_combout\ $end
$var wire 1 F \tff1|teste~q\ $end
$var wire 1 G \tff2|teste~0_combout\ $end
$var wire 1 H \tff2|teste~q\ $end
$var wire 1 I \tff3|teste~0_combout\ $end
$var wire 1 J \tff3|teste~q\ $end
$var wire 1 K \tff4|teste~0_combout\ $end
$var wire 1 L \tff4|teste~q\ $end
$var wire 1 M \in_tff5~combout\ $end
$var wire 1 N \tff5|teste~0_combout\ $end
$var wire 1 O \tff5|teste~q\ $end
$var wire 1 P \tff6|teste~0_combout\ $end
$var wire 1 Q \tff6|teste~q\ $end
$var wire 1 R \tff7|teste~0_combout\ $end
$var wire 1 S \tff7|teste~q\ $end
$var wire 1 T \tff8|teste~0_combout\ $end
$var wire 1 U \tff8|teste~q\ $end
$var wire 1 V \ALT_INV_Enable~input_o\ $end
$var wire 1 W \ALT_INV_Clear~input_o\ $end
$var wire 1 X \ALT_INV_in_tff5~combout\ $end
$var wire 1 Y \tff8|ALT_INV_teste~q\ $end
$var wire 1 Z \tff7|ALT_INV_teste~q\ $end
$var wire 1 [ \tff6|ALT_INV_teste~q\ $end
$var wire 1 \ \tff5|ALT_INV_teste~q\ $end
$var wire 1 ] \tff4|ALT_INV_teste~q\ $end
$var wire 1 ^ \tff3|ALT_INV_teste~q\ $end
$var wire 1 _ \tff2|ALT_INV_teste~q\ $end
$var wire 1 ` \tff1|ALT_INV_teste~q\ $end
$upscope $end
$upscope $end
$enddefinitions $end
#0
$dumpvars
0!
0"
1#
0$
0%
0&
0'
0(
0)
0*
0+
0,
1-
x.
1/
10
11
12
13
14
05
06
07
08
09
0:
0;
0<
1=
0>
0?
x@
0A
0B
1C
0D
1E
0F
0G
0H
0I
0J
0K
0L
0M
0N
0O
0P
0Q
0R
0S
0T
0U
0V
1W
1X
1Y
1Z
1[
1\
1]
1^
1_
1`
$end
#25000
1"
1?
1A
1B
1F
0`
0E
1G
15
1$
#50000
0"
0?
0A
0B
#75000
1"
1?
1A
1B
0F
1H
0_
1`
1E
16
05
1%
0$
#100000
0"
0?
0A
0B
#125000
1"
1?
1A
1B
1F
0`
0E
0G
1I
15
1$
#150000
0"
0?
0A
0B
#175000
1"
1?
1A
1B
0F
0H
1J
0^
1_
1`
1E
17
06
05
1&
0%
0$
#200000
0"
0?
0A
0B
#225000
1"
1?
1A
1B
1F
0`
0E
1G
15
1$
#250000
0"
0?
0A
0B
#275000
1"
1?
1A
1B
0F
1H
0_
1`
1E
16
05
1%
0$
#300000
0"
0?
0A
0B
#325000
1"
1?
1A
1B
1F
0`
0E
0G
0I
1K
15
1$
#350000
0"
0?
0A
0B
#375000
1"
1?
1A
1B
0F
0H
0J
1L
0]
1^
1_
1`
1E
18
07
06
05
1'
0&
0%
0$
#400000
0"
0?
0A
0B
#425000
1"
1?
1A
1B
1F
0`
0E
1G
15
1$
#450000
0"
0?
0A
0B
#475000
1"
1?
1A
1B
0F
1H
0_
1`
1E
16
05
1%
0$
#500000
0"
0?
0A
0B
#525000
1"
1?
1A
1B
1F
0`
0E
0G
1I
15
1$
#550000
0"
0?
0A
0B
#575000
1"
1?
1A
1B
0F
0H
1J
0^
1_
1`
1E
17
06
05
1&
0%
0$
#600000
0"
0?
0A
0B
#625000
1"
1?
1A
1B
1F
0`
0E
1G
15
1$
#650000
0"
0?
0A
0B
#675000
1"
1?
1A
1B
0F
1H
0_
1`
1E
16
05
1%
0$
#700000
0"
0?
0A
0B
#725000
1"
1?
1A
1B
1F
0`
0E
0G
0I
0K
1M
0X
15
1N
1$
#750000
0"
0?
0A
0B
#775000
1"
1?
1A
1B
0F
0H
0J
0L
1O
0\
1]
1^
1_
1`
1E
0M
0N
1P
1X
19
08
07
06
05
1N
0P
1(
0'
0&
0%
0$
#800000
0"
0?
0A
0B
#825000
1"
1?
1A
1B
1F
0`
0E
1G
15
1$
#850000
0"
0?
0A
0B
#875000
1"
1?
1A
1B
0F
1H
0_
1`
1E
16
05
1%
0$
#900000
0"
0?
0A
0B
#925000
1"
1?
1A
1B
1F
0`
0E
0G
1I
15
1$
#950000
0"
0?
0A
0B
#975000
1"
1?
1A
1B
0F
0H
1J
0^
1_
1`
1E
17
06
05
1&
0%
0$
#1000000
0"
0?
0A
0B
#1025000
1"
1?
1A
1B
1F
0`
0E
1G
15
1$
#1050000
0"
0?
0A
0B
#1075000
1"
1?
1A
1B
0F
1H
0_
1`
1E
16
05
1%
0$
#1100000
0"
0?
0A
0B
#1125000
1"
1?
1A
1B
1F
0`
0E
0G
0I
1K
15
1$
#1150000
0"
0?
0A
0B
#1175000
1"
1?
1A
1B
0F
0H
0J
1L
0]
1^
1_
1`
1E
18
07
06
05
1'
0&
0%
0$
#1200000
0"
0?
0A
0B
#1225000
1"
1?
1A
1B
1F
0`
0E
1G
15
1$
#1250000
0"
0?
0A
0B
#1275000
1"
1?
1A
1B
0F
1H
0_
1`
1E
16
05
1%
0$
#1300000
0"
0?
0A
0B
#1325000
1"
1?
1A
1B
1F
0`
0E
0G
1I
15
1$
#1350000
0"
0?
0A
0B
#1375000
1"
1?
1A
1B
0F
0H
1J
0^
1_
1`
1E
17
06
05
1&
0%
0$
#1400000
0"
0?
0A
0B
#1425000
1"
1?
1A
1B
1F
0`
0E
1G
15
1$
#1450000
0"
0?
0A
0B
#1475000
1"
1?
1A
1B
0F
1H
0_
1`
1E
16
05
1%
0$
#1500000
0"
0?
0A
0B
#1525000
1"
1?
1A
1B
1F
0`
0E
0G
0I
0K
1M
0X
15
0N
1P
1$
#1550000
0"
0?
0A
0B
#1575000
1"
1?
1A
1B
0F
0H
0J
0L
0O
1Q
0[
1\
1]
1^
1_
1`
1E
0M
1N
1X
1:
09
08
07
06
05
0N
1)
0(
0'
0&
0%
0$
#1600000
0"
0?
0A
0B
#1625000
1"
1?
1A
1B
1F
0`
0E
1G
15
1$
#1650000
0"
0?
0A
0B
#1675000
1"
1?
1A
1B
0F
1H
0_
1`
1E
16
05
1%
0$
#1700000
0"
0?
0A
0B
#1725000
1"
1?
1A
1B
1F
0`
0E
0G
1I
15
1$
#1750000
0"
0?
0A
0B
#1775000
1"
1?
1A
1B
0F
0H
1J
0^
1_
1`
1E
17
06
05
1&
0%
0$
#1800000
0"
0?
0A
0B
#1825000
1"
1?
1A
1B
1F
0`
0E
1G
15
1$
#1850000
0"
0?
0A
0B
#1875000
1"
1?
1A
1B
0F
1H
0_
1`
1E
16
05
1%
0$
#1900000
0"
0?
0A
0B
#1925000
1"
1?
1A
1B
1F
0`
0E
0G
0I
1K
15
1$
#1950000
0"
0?
0A
0B
#1975000
1"
1?
1A
1B
0F
0H
0J
1L
0]
1^
1_
1`
1E
18
07
06
05
1'
0&
0%
0$
#2000000
0"
0?
0A
0B
#2025000
1"
1?
1A
1B
1F
0`
0E
1G
15
1$
#2050000
0"
0?
0A
0B
#2075000
1"
1?
1A
1B
0F
1H
0_
1`
1E
16
05
1%
0$
#2100000
0"
0?
0A
0B
#2125000
1"
1?
1A
1B
1F
0`
0E
0G
1I
15
1$
#2150000
0"
0?
0A
0B
#2175000
1"
1?
1A
1B
0F
0H
1J
0^
1_
1`
1E
17
06
05
1&
0%
0$
#2200000
0"
0?
0A
0B
#2225000
1"
1?
1A
1B
1F
0`
0E
1G
15
1$
#2250000
0"
0?
0A
0B
#2275000
1"
1?
1A
1B
0F
1H
0_
1`
1E
16
05
1%
0$
#2300000
0"
0?
0A
0B
#2325000
1"
1?
1A
1B
1F
0`
0E
0G
0I
0K
1M
0X
15
1N
1$
#2350000
0"
0?
0A
0B
#2375000
1"
1?
1A
1B
0F
0H
0J
0L
1O
0\
1]
1^
1_
1`
1E
0M
0N
0P
1R
1X
19
08
07
06
05
1N
1P
0R
1(
0'
0&
0%
0$
#2400000
0"
0?
0A
0B
#2425000
1"
1?
1A
1B
1F
0`
0E
1G
15
1$
#2450000
0"
0?
0A
0B
#2475000
1"
1?
1A
1B
0F
1H
0_
1`
1E
16
05
1%
0$
#2500000
0"
0?
0A
0B
#2525000
1"
1?
1A
1B
1F
0`
0E
0G
1I
15
1$
#2550000
0"
0?
0A
0B
#2575000
1"
1?
1A
1B
0F
0H
1J
0^
1_
1`
1E
17
06
05
1&
0%
0$
#2600000
0"
0?
0A
0B
#2625000
1"
1?
1A
1B
1F
0`
0E
1G
15
1$
#2650000
0"
0?
0A
0B
#2675000
1"
1?
1A
1B
0F
1H
0_
1`
1E
16
05
1%
0$
#2700000
0"
0?
0A
0B
#2725000
1"
1?
1A
1B
1F
0`
0E
0G
0I
1K
15
1$
#2750000
0"
0?
0A
0B
#2775000
1"
1?
1A
1B
0F
0H
0J
1L
0]
1^
1_
1`
1E
18
07
06
05
1'
0&
0%
0$
#2800000
0"
0?
0A
0B
#2825000
1"
1?
1A
1B
1F
0`
0E
1G
15
1$
#2850000
0"
0?
0A
0B
#2875000
1"
1?
1A
1B
0F
1H
0_
1`
1E
16
05
1%
0$
#2880000
1!
1>
1D
0W
0E
0G
0K
0N
0P
#2900000
0"
0?
0A
0B
#2925000
1"
1?
1A
1B
0H
0L
0O
0Q
1[
1\
1]
1_
0:
09
08
06
0)
0(
0'
0%
#2950000
0"
0?
0A
0B
#2975000
1"
1?
1A
1B
#3000000
0"
0?
0A
0B
#3025000
1"
1?
1A
1B
#3050000
0"
0?
0A
0B
#3075000
1"
1?
1A
1B
#3100000
0"
0?
0A
0B
#3125000
1"
1?
1A
1B
#3150000
0"
0?
0A
0B
#3175000
1"
1?
1A
1B
#3200000
0"
0?
0A
0B
#3225000
1"
1?
1A
1B
#3250000
0"
0?
0A
0B
#3275000
1"
1?
1A
1B
#3300000
0"
0?
0A
0B
#3325000
1"
1?
1A
1B
#3350000
0"
0?
0A
0B
#3375000
1"
1?
1A
1B
#3400000
0"
0?
0A
0B
#3425000
1"
1?
1A
1B
#3450000
0"
0?
0A
0B
#3475000
1"
1?
1A
1B
#3500000
0"
0?
0A
0B
#3525000
1"
1?
1A
1B
#3550000
0"
0?
0A
0B
#3575000
1"
1?
1A
1B
#3600000
0"
0?
0A
0B
#3625000
1"
1?
1A
1B
#3650000
0"
0?
0A
0B
#3675000
1"
1?
1A
1B
#3700000
0"
0?
0A
0B
#3725000
1"
1?
1A
1B
#3750000
0"
0?
0A
0B
#3775000
1"
1?
1A
1B
#3800000
0"
0?
0A
0B
#3825000
1"
1?
1A
1B
#3850000
0"
0?
0A
0B
#3875000
1"
1?
1A
1B
#3900000
0"
0?
0A
0B
#3925000
1"
1?
1A
1B
#3950000
0"
0?
0A
0B
#3975000
1"
1?
1A
1B
#4000000
0"
0?
0A
0B
#4025000
1"
1?
1A
1B
#4050000
0"
0?
0A
0B
#4075000
1"
1?
1A
1B
#4100000
0"
0?
0A
0B
#4125000
1"
1?
1A
1B
#4150000
0"
0?
0A
0B
#4175000
1"
1?
1A
1B
#4200000
0"
0?
0A
0B
#4225000
1"
1?
1A
1B
#4250000
0"
0?
0A
0B
#4275000
1"
1?
1A
1B
#4300000
0"
0?
0A
0B
#4325000
1"
1?
1A
1B
#4350000
0"
0?
0A
0B
#4375000
1"
1?
1A
1B
#4400000
0"
0?
0A
0B
#4425000
1"
1?
1A
1B
#4450000
0"
0?
0A
0B
#4475000
1"
1?
1A
1B
#4500000
0"
0?
0A
0B
#4525000
1"
1?
1A
1B
#4550000
0"
0?
0A
0B
#4575000
1"
1?
1A
1B
#4600000
0"
0?
0A
0B
#4625000
1"
1?
1A
1B
#4650000
0"
0?
0A
0B
#4675000
1"
1?
1A
1B
#4700000
0"
0?
0A
0B
#4725000
1"
1?
1A
1B
#4750000
0"
0?
0A
0B
#4775000
1"
1?
1A
1B
#4800000
0"
0!
0?
0>
0D
0A
0B
1W
1E
#4825000
1"
1?
1A
1B
1F
0`
0E
1G
15
1$
#4850000
0"
0?
0A
0B
#4875000
1"
1?
1A
1B
0F
1H
0_
1`
1E
16
05
1%
0$
#4900000
0"
0?
0A
0B
#4925000
1"
1?
1A
1B
1F
0`
0E
0G
1I
15
1$
#4950000
0"
0?
0A
0B
#4975000
1"
1?
1A
1B
0F
0H
1J
0^
1_
1`
1E
17
06
05
1&
0%
0$
#5000000
0"
0?
0A
0B
#5025000
1"
1?
1A
1B
1F
0`
0E
1G
15
1$
#5050000
0"
0?
0A
0B
#5075000
1"
1?
1A
1B
0F
1H
0_
1`
1E
16
05
1%
0$
#5100000
0"
0?
0A
0B
#5125000
1"
1?
1A
1B
1F
0`
0E
0G
0I
1K
15
1$
#5150000
0"
0?
0A
0B
#5175000
1"
1?
1A
1B
0F
0H
0J
1L
0]
1^
1_
1`
1E
18
07
06
05
1'
0&
0%
0$
#5200000
0"
0?
0A
0B
#5225000
1"
1?
1A
1B
1F
0`
0E
1G
15
1$
#5250000
0"
0?
0A
0B
#5275000
1"
1?
1A
1B
0F
1H
0_
1`
1E
16
05
1%
0$
#5300000
0"
0?
0A
0B
#5325000
1"
1?
1A
1B
1F
0`
0E
0G
1I
15
1$
#5350000
0"
0?
0A
0B
#5375000
1"
1?
1A
1B
0F
0H
1J
0^
1_
1`
1E
17
06
05
1&
0%
0$
#5400000
0"
0?
0A
0B
#5425000
1"
1?
1A
1B
1F
0`
0E
1G
15
1$
#5450000
0"
0?
0A
0B
#5475000
1"
1?
1A
1B
0F
1H
0_
1`
1E
16
05
1%
0$
#5500000
0"
0?
0A
0B
#5525000
1"
1?
1A
1B
1F
0`
0E
0G
0I
0K
1M
0X
15
1N
1$
#5550000
0"
0?
0A
0B
#5575000
1"
1?
1A
1B
0F
0H
0J
0L
1O
0\
1]
1^
1_
1`
1E
0M
0N
1P
1X
19
08
07
06
05
1N
0P
1(
0'
0&
0%
0$
#5600000
0"
0?
0A
0B
#5625000
1"
1?
1A
1B
1F
0`
0E
1G
15
1$
#5650000
0"
0?
0A
0B
#5675000
1"
1?
1A
1B
0F
1H
0_
1`
1E
16
05
1%
0$
#5700000
0"
0?
0A
0B
#5725000
1"
1?
1A
1B
1F
0`
0E
0G
1I
15
1$
#5750000
0"
0?
0A
0B
#5775000
1"
1?
1A
1B
0F
0H
1J
0^
1_
1`
1E
17
06
05
1&
0%
0$
#5800000
0"
0?
0A
0B
#5825000
1"
1?
1A
1B
1F
0`
0E
1G
15
1$
#5850000
0"
0?
0A
0B
#5875000
1"
1?
1A
1B
0F
1H
0_
1`
1E
16
05
1%
0$
#5900000
0"
0?
0A
0B
#5925000
1"
1?
1A
1B
1F
0`
0E
0G
0I
1K
15
1$
#5950000
0"
0?
0A
0B
#5975000
1"
1?
1A
1B
0F
0H
0J
1L
0]
1^
1_
1`
1E
18
07
06
05
1'
0&
0%
0$
#6000000
0"
0?
0A
0B
#6025000
1"
1?
1A
1B
1F
0`
0E
1G
15
1$
#6050000
0"
0?
0A
0B
#6075000
1"
1?
1A
1B
0F
1H
0_
1`
1E
16
05
1%
0$
#6100000
0"
0?
0A
0B
#6125000
1"
1?
1A
1B
1F
0`
0E
0G
1I
15
1$
#6150000
0"
0?
0A
0B
#6175000
1"
1?
1A
1B
0F
0H
1J
0^
1_
1`
1E
17
06
05
1&
0%
0$
#6200000
0"
0?
0A
0B
#6225000
1"
1?
1A
1B
1F
0`
0E
1G
15
1$
#6250000
0"
0?
0A
0B
#6275000
1"
1?
1A
1B
0F
1H
0_
1`
1E
16
05
1%
0$
#6300000
0"
0?
0A
0B
#6325000
1"
1?
1A
1B
1F
0`
0E
0G
0I
0K
1M
0X
15
0N
1P
1$
#6350000
0"
0?
0A
0B
#6375000
1"
1?
1A
1B
0F
0H
0J
0L
0O
1Q
0[
1\
1]
1^
1_
1`
1E
0M
1N
1X
1:
09
08
07
06
05
0N
1)
0(
0'
0&
0%
0$
#6400000
0"
0?
0A
0B
#6425000
1"
1?
1A
1B
1F
0`
0E
1G
15
1$
#6450000
0"
0?
0A
0B
#6475000
1"
1?
1A
1B
0F
1H
0_
1`
1E
16
05
1%
0$
#6500000
0"
0?
0A
0B
#6525000
1"
1?
1A
1B
1F
0`
0E
0G
1I
15
1$
#6550000
0"
0?
0A
0B
#6575000
1"
1?
1A
1B
0F
0H
1J
0^
1_
1`
1E
17
06
05
1&
0%
0$
#6600000
0"
0?
0A
0B
#6625000
1"
1?
1A
1B
1F
0`
0E
1G
15
1$
#6650000
0"
0?
0A
0B
#6675000
1"
1?
1A
1B
0F
1H
0_
1`
1E
16
05
1%
0$
#6700000
0"
0?
0A
0B
#6725000
1"
1?
1A
1B
1F
0`
0E
0G
0I
1K
15
1$
#6750000
0"
0?
0A
0B
#6775000
1"
1?
1A
1B
0F
0H
0J
1L
0]
1^
1_
1`
1E
18
07
06
05
1'
0&
0%
0$
#6800000
0"
0?
0A
0B
#6825000
1"
1?
1A
1B
1F
0`
0E
1G
15
1$
#6850000
0"
0?
0A
0B
#6875000
1"
1?
1A
1B
0F
1H
0_
1`
1E
16
05
1%
0$
#6900000
0"
0?
0A
0B
#6925000
1"
1?
1A
1B
1F
0`
0E
0G
1I
15
1$
#6950000
0"
0?
0A
0B
#6975000
1"
1?
1A
1B
0F
0H
1J
0^
1_
1`
1E
17
06
05
1&
0%
0$
#7000000
0"
0?
0A
0B
#7025000
1"
1?
1A
1B
1F
0`
0E
1G
15
1$
#7050000
0"
0?
0A
0B
#7075000
1"
1?
1A
1B
0F
1H
0_
1`
1E
16
05
1%
0$
#7100000
0"
0?
0A
0B
#7125000
1"
1?
1A
1B
1F
0`
0E
0G
0I
0K
1M
0X
15
1N
1$
#7150000
0"
0?
0A
0B
#7175000
1"
1?
1A
1B
0F
0H
0J
0L
1O
0\
1]
1^
1_
1`
1E
0M
0N
0P
1R
1X
19
08
07
06
05
1N
1P
0R
1(
0'
0&
0%
0$
#7200000
0"
0?
0A
0B
#7225000
1"
1?
1A
1B
1F
0`
0E
1G
15
1$
#7250000
0"
0?
0A
0B
#7275000
1"
1?
1A
1B
0F
1H
0_
1`
1E
16
05
1%
0$
#7300000
0"
0?
0A
0B
#7325000
1"
1?
1A
1B
1F
0`
0E
0G
1I
15
1$
#7350000
0"
0?
0A
0B
#7375000
1"
1?
1A
1B
0F
0H
1J
0^
1_
1`
1E
17
06
05
1&
0%
0$
#7400000
0"
0?
0A
0B
#7425000
1"
1?
1A
1B
1F
0`
0E
1G
15
1$
#7450000
0"
0?
0A
0B
#7475000
1"
1?
1A
1B
0F
1H
0_
1`
1E
16
05
1%
0$
#7500000
0"
0?
0A
0B
#7525000
1"
1?
1A
1B
1F
0`
0E
0G
0I
1K
15
1$
#7550000
0"
0?
0A
0B
#7575000
1"
1?
1A
1B
0F
0H
0J
1L
0]
1^
1_
1`
1E
18
07
06
05
1'
0&
0%
0$
#7600000
0"
0?
0A
0B
#7625000
1"
1?
1A
1B
1F
0`
0E
1G
15
1$
#7650000
0"
0?
0A
0B
#7675000
1"
1?
1A
1B
0F
1H
0_
1`
1E
16
05
1%
0$
#7700000
0"
0?
0A
0B
#7725000
1"
1?
1A
1B
1F
0`
0E
0G
1I
15
1$
#7750000
0"
0?
0A
0B
#7775000
1"
1?
1A
1B
0F
0H
1J
0^
1_
1`
1E
17
06
05
1&
0%
0$
#7800000
0"
0?
0A
0B
#7825000
1"
1?
1A
1B
1F
0`
0E
1G
15
1$
#7850000
0"
0?
0A
0B
#7875000
1"
1?
1A
1B
0F
1H
0_
1`
1E
16
05
1%
0$
#7900000
0"
0?
0A
0B
#7925000
1"
1?
1A
1B
1F
0`
0E
0G
0I
0K
1M
0X
15
0N
0P
1R
1$
#7950000
0"
0?
0A
0B
#7975000
1"
1?
1A
1B
0F
0H
0J
0L
0O
0Q
1S
0Z
1[
1\
1]
1^
1_
1`
1E
0M
1N
1X
1;
0:
09
08
07
06
05
0N
1*
0)
0(
0'
0&
0%
0$
#8000000
0"
0?
0A
0B
#8025000
1"
1?
1A
1B
1F
0`
0E
1G
15
1$
#8050000
0"
0?
0A
0B
#8075000
1"
1?
1A
1B
0F
1H
0_
1`
1E
16
05
1%
0$
#8100000
0"
0?
0A
0B
#8125000
1"
1?
1A
1B
1F
0`
0E
0G
1I
15
1$
#8150000
0"
0?
0A
0B
#8175000
1"
1?
1A
1B
0F
0H
1J
0^
1_
1`
1E
17
06
05
1&
0%
0$
#8200000
0"
0?
0A
0B
#8225000
1"
1?
1A
1B
1F
0`
0E
1G
15
1$
#8250000
0"
0?
0A
0B
#8275000
1"
1?
1A
1B
0F
1H
0_
1`
1E
16
05
1%
0$
#8300000
0"
0?
0A
0B
#8325000
1"
1?
1A
1B
1F
0`
0E
0G
0I
1K
15
1$
#8350000
0"
0?
0A
0B
#8375000
1"
1?
1A
1B
0F
0H
0J
1L
0]
1^
1_
1`
1E
18
07
06
05
1'
0&
0%
0$
#8400000
0"
0?
0A
0B
#8425000
1"
1?
1A
1B
1F
0`
0E
1G
15
1$
#8450000
0"
0?
0A
0B
#8475000
1"
1?
1A
1B
0F
1H
0_
1`
1E
16
05
1%
0$
#8500000
0"
0?
0A
0B
#8525000
1"
1?
1A
1B
1F
0`
0E
0G
1I
15
1$
#8550000
0"
0?
0A
0B
#8575000
1"
1?
1A
1B
0F
0H
1J
0^
1_
1`
1E
17
06
05
1&
0%
0$
#8600000
0"
0?
0A
0B
#8625000
1"
1?
1A
1B
1F
0`
0E
1G
15
1$
#8650000
0"
0?
0A
0B
#8675000
1"
1?
1A
1B
0F
1H
0_
1`
1E
16
05
1%
0$
#8700000
0"
0?
0A
0B
#8725000
1"
1?
1A
1B
1F
0`
0E
0G
0I
0K
1M
0X
15
1N
1$
#8750000
0"
0?
0A
0B
#8775000
1"
1?
1A
1B
0F
0H
0J
0L
1O
0\
1]
1^
1_
1`
1E
0M
0N
1P
1X
19
08
07
06
05
1N
0P
1(
0'
0&
0%
0$
#8800000
0"
0?
0A
0B
#8825000
1"
1?
1A
1B
1F
0`
0E
1G
15
1$
#8850000
0"
0?
0A
0B
#8875000
1"
1?
1A
1B
0F
1H
0_
1`
1E
16
05
1%
0$
#8900000
0"
0?
0A
0B
#8925000
1"
1?
1A
1B
1F
0`
0E
0G
1I
15
1$
#8950000
0"
0?
0A
0B
#8975000
1"
1?
1A
1B
0F
0H
1J
0^
1_
1`
1E
17
06
05
1&
0%
0$
#9000000
0"
0?
0A
0B
#9025000
1"
1?
1A
1B
1F
0`
0E
1G
15
1$
#9050000
0"
0?
0A
0B
#9075000
1"
1?
1A
1B
0F
1H
0_
1`
1E
16
05
1%
0$
#9100000
0"
0?
0A
0B
#9125000
1"
1?
1A
1B
1F
0`
0E
0G
0I
1K
15
1$
#9150000
0"
0?
0A
0B
#9175000
1"
1?
1A
1B
0F
0H
0J
1L
0]
1^
1_
1`
1E
18
07
06
05
1'
0&
0%
0$
#9200000
0"
0?
0A
0B
#9225000
1"
1?
1A
1B
1F
0`
0E
1G
15
1$
#9250000
0"
0?
0A
0B
#9275000
1"
1?
1A
1B
0F
1H
0_
1`
1E
16
05
1%
0$
#9300000
0"
0?
0A
0B
#9325000
1"
1?
1A
1B
1F
0`
0E
0G
1I
15
1$
#9350000
0"
0?
0A
0B
#9375000
1"
1?
1A
1B
0F
0H
1J
0^
1_
1`
1E
17
06
05
1&
0%
0$
#9400000
0"
0?
0A
0B
#9425000
1"
1?
1A
1B
1F
0`
0E
1G
15
1$
#9450000
0"
0?
0A
0B
#9475000
1"
1?
1A
1B
0F
1H
0_
1`
1E
16
05
1%
0$
#9500000
0"
0?
0A
0B
#9525000
1"
1?
1A
1B
1F
0`
0E
0G
0I
0K
1M
0X
15
0N
1P
1$
#9550000
0"
0?
0A
0B
#9575000
1"
1?
1A
1B
0F
0H
0J
0L
0O
1Q
0[
1\
1]
1^
1_
1`
1E
0M
1N
1X
1:
09
08
07
06
05
0N
1)
0(
0'
0&
0%
0$
#9600000
0"
0?
0A
0B
#9625000
1"
1?
1A
1B
1F
0`
0E
1G
15
1$
#9650000
0"
0?
0A
0B
#9675000
1"
1?
1A
1B
0F
1H
0_
1`
1E
16
05
1%
0$
#9700000
0"
0?
0A
0B
#9725000
1"
1?
1A
1B
1F
0`
0E
0G
1I
15
1$
#9750000
0"
0?
0A
0B
#9775000
1"
1?
1A
1B
0F
0H
1J
0^
1_
1`
1E
17
06
05
1&
0%
0$
#9800000
0"
0?
0A
0B
#9825000
1"
1?
1A
1B
1F
0`
0E
1G
15
1$
#9850000
0"
0?
0A
0B
#9875000
1"
1?
1A
1B
0F
1H
0_
1`
1E
16
05
1%
0$
#9900000
0"
0?
0A
0B
#9925000
1"
1?
1A
1B
1F
0`
0E
0G
0I
1K
15
1$
#9950000
0"
0?
0A
0B
#9975000
1"
1?
1A
1B
0F
0H
0J
1L
0]
1^
1_
1`
1E
18
07
06
05
1'
0&
0%
0$
#10000000
0"
0?
0A
0B
#10025000
1"
1?
1A
1B
1F
0`
0E
1G
15
1$
#10050000
0"
0?
0A
0B
#10075000
1"
1?
1A
1B
0F
1H
0_
1`
1E
16
05
1%
0$
#10100000
0"
0?
0A
0B
#10125000
1"
1?
1A
1B
1F
0`
0E
0G
1I
15
1$
#10150000
0"
0?
0A
0B
#10175000
1"
1?
1A
1B
0F
0H
1J
0^
1_
1`
1E
17
06
05
1&
0%
0$
#10200000
0"
0?
0A
0B
#10225000
1"
1?
1A
1B
1F
0`
0E
1G
15
1$
#10250000
0"
0?
0A
0B
#10275000
1"
1?
1A
1B
0F
1H
0_
1`
1E
16
05
1%
0$
#10300000
0"
0?
0A
0B
#10325000
1"
1?
1A
1B
1F
0`
0E
0G
0I
0K
1M
0X
15
1N
1$
#10350000
0"
0?
0A
0B
#10375000
1"
1?
1A
1B
0F
0H
0J
0L
1O
0\
1]
1^
1_
1`
1E
0M
0N
0P
0R
1T
1X
19
08
07
06
05
1N
1P
1R
0T
1(
0'
0&
0%
0$
#10400000
0"
0?
0A
0B
#10425000
1"
1?
1A
1B
1F
0`
0E
1G
15
1$
#10450000
0"
0?
0A
0B
#10475000
1"
1?
1A
1B
0F
1H
0_
1`
1E
16
05
1%
0$
#10500000
0"
0?
0A
0B
#10525000
1"
1?
1A
1B
1F
0`
0E
0G
1I
15
1$
#10550000
0"
0?
0A
0B
#10575000
1"
1?
1A
1B
0F
0H
1J
0^
1_
1`
1E
17
06
05
1&
0%
0$
#10600000
0"
0?
0A
0B
#10625000
1"
1?
1A
1B
1F
0`
0E
1G
15
1$
#10650000
0"
0?
0A
0B
#10675000
1"
1?
1A
1B
0F
1H
0_
1`
1E
16
05
1%
0$
#10700000
0"
0?
0A
0B
#10725000
1"
1?
1A
1B
1F
0`
0E
0G
0I
1K
15
1$
#10750000
0"
0?
0A
0B
#10775000
1"
1?
1A
1B
0F
0H
0J
1L
0]
1^
1_
1`
1E
18
07
06
05
1'
0&
0%
0$
#10800000
0"
0?
0A
0B
#10825000
1"
1?
1A
1B
1F
0`
0E
1G
15
1$
#10850000
0"
0?
0A
0B
#10875000
1"
1?
1A
1B
0F
1H
0_
1`
1E
16
05
1%
0$
#10900000
0"
0?
0A
0B
#10925000
1"
1?
1A
1B
1F
0`
0E
0G
1I
15
1$
#10950000
0"
0?
0A
0B
#10975000
1"
1?
1A
1B
0F
0H
1J
0^
1_
1`
1E
17
06
05
1&
0%
0$
#11000000
0"
0?
0A
0B
#11025000
1"
1?
1A
1B
1F
0`
0E
1G
15
1$
#11050000
0"
0?
0A
0B
#11075000
1"
1?
1A
1B
0F
1H
0_
1`
1E
16
05
1%
0$
#11100000
0"
0?
0A
0B
#11125000
1"
1?
1A
1B
1F
0`
0E
0G
0I
0K
1M
0X
15
0N
0P
0R
1T
1$
#11150000
0"
0?
0A
0B
#11175000
1"
1?
1A
1B
0F
0H
0J
0L
0O
0Q
0S
1U
0Y
1Z
1[
1\
1]
1^
1_
1`
1E
0M
1N
1X
1<
0;
0:
09
08
07
06
05
0N
1+
0*
0)
0(
0'
0&
0%
0$
#11200000
0"
0?
0A
0B
#11225000
1"
1?
1A
1B
1F
0`
0E
1G
15
1$
#11250000
0"
0?
0A
0B
#11275000
1"
1?
1A
1B
0F
1H
0_
1`
1E
16
05
1%
0$
#11300000
0"
0?
0A
0B
