Parte 2/part2 - 16BitCounter-20240918T125411Z-001/part2 - 16BitCounter/simulation/qsim/16BitCounter.msim.vcd
$comment
	File created using the following command:
		vcd file 16BitCounter.msim.vcd -direction
$end
$date
	Sun Sep 15 13:47:05 2024
$end
$version
	ModelSim Version 10.5b
$end
$timescale
	1ps
$end

$scope module o16bitcounter_vhd_vec_tst $end
$var wire 1 ! bin [15] $end
$var wire 1 " bin [14] $end
$var wire 1 # bin [13] $end
$var wire 1 $ bin [12] $end
$var wire 1 % bin [11] $end
$var wire 1 & bin [10] $end
$var wire 1 ' bin [9] $end
$var wire 1 ( bin [8] $end
$var wire 1 ) bin [7] $end
$var wire 1 * bin [6] $end
$var wire 1 + bin [5] $end
$var wire 1 , bin [4] $end
$var wire 1 - bin [3] $end
$var wire 1 . bin [2] $end
$var wire 1 / bin [1] $end
$var wire 1 0 bin [0] $end
$var wire 1 1 Clear $end
$var wire 1 2 Clk $end
$var wire 1 3 Enable $end
$var wire 1 4 HEX00 $end
$var wire 1 5 HEX01 $end
$var wire 1 6 HEX03 $end
$var wire 1 7 HEX04 $end
$var wire 1 8 HEX05 $end
$var wire 1 9 HEX06 $end
$var wire 1 : HEX10 $end
$var wire 1 ; HEX11 $end
$var wire 1 < HEX12 $end
$var wire 1 = HEX13 $end
$var wire 1 > HEX14 $end
$var wire 1 ? HEX15 $end
$var wire 1 @ HEX16 $end
$var wire 1 A HEX20 $end
$var wire 1 B HEX21 $end
$var wire 1 C HEX22 $end
$var wire 1 D HEX23 $end
$var wire 1 E HEX24 $end
$var wire 1 F HEX25 $end
$var wire 1 G HEX26 $end
$var wire 1 H HEX30 $end
$var wire 1 I HEX31 $end
$var wire 1 J HEX32 $end
$var wire 1 K HEX33 $end
$var wire 1 L HEX34 $end
$var wire 1 M HEX35 $end
$var wire 1 N HEX36 $end

$scope module i1 $end
$var wire 1 O gnd $end
$var wire 1 P vcc $end
$var wire 1 Q unknown $end
$var wire 1 R devoe $end
$var wire 1 S devclrn $end
$var wire 1 T devpor $end
$var wire 1 U ww_devoe $end
$var wire 1 V ww_devclrn $end
$var wire 1 W ww_devpor $end
$var wire 1 X ww_Enable $end
$var wire 1 Y ww_Clk $end
$var wire 1 Z ww_Clear $end
$var wire 1 [ ww_bin [15] $end
$var wire 1 \ ww_bin [14] $end
$var wire 1 ] ww_bin [13] $end
$var wire 1 ^ ww_bin [12] $end
$var wire 1 _ ww_bin [11] $end
$var wire 1 ` ww_bin [10] $end
$var wire 1 a ww_bin [9] $end
$var wire 1 b ww_bin [8] $end
$var wire 1 c ww_bin [7] $end
$var wire 1 d ww_bin [6] $end
$var wire 1 e ww_bin [5] $end
$var wire 1 f ww_bin [4] $end
$var wire 1 g ww_bin [3] $end
$var wire 1 h ww_bin [2] $end
$var wire 1 i ww_bin [1] $end
$var wire 1 j ww_bin [0] $end
$var wire 1 k ww_HEX00 $end
$var wire 1 l ww_HEX01 $end
$var wire 1 m ww_HEX03 $end
$var wire 1 n ww_HEX04 $end
$var wire 1 o ww_HEX05 $end
$var wire 1 p ww_HEX06 $end
$var wire 1 q ww_HEX10 $end
$var wire 1 r ww_HEX11 $end
$var wire 1 s ww_HEX12 $end
$var wire 1 t ww_HEX13 $end
$var wire 1 u ww_HEX14 $end
$var wire 1 v ww_HEX15 $end
$var wire 1 w ww_HEX16 $end
$var wire 1 x ww_HEX20 $end
$var wire 1 y ww_HEX21 $end
$var wire 1 z ww_HEX22 $end
$var wire 1 { ww_HEX23 $end
$var wire 1 | ww_HEX24 $end
$var wire 1 } ww_HEX25 $end
$var wire 1 ~ ww_HEX26 $end
$var wire 1 !! ww_HEX30 $end
$var wire 1 "! ww_HEX31 $end
$var wire 1 #! ww_HEX32 $end
$var wire 1 $! ww_HEX33 $end
$var wire 1 %! ww_HEX34 $end
$var wire 1 &! ww_HEX35 $end
$var wire 1 '! ww_HEX36 $end
$var wire 1 (! \Clk~inputclkctrl_INCLK_bus\ [3] $end
$var wire 1 )! \Clk~inputclkctrl_INCLK_bus\ [2] $end
$var wire 1 *! \Clk~inputclkctrl_INCLK_bus\ [1] $end
$var wire 1 +! \Clk~inputclkctrl_INCLK_bus\ [0] $end
$var wire 1 ,! \bin[0]~output_o\ $end
$var wire 1 -! \bin[1]~output_o\ $end
$var wire 1 .! \bin[2]~output_o\ $end
$var wire 1 /! \bin[3]~output_o\ $end
$var wire 1 0! \bin[4]~output_o\ $end
$var wire 1 1! \bin[5]~output_o\ $end
$var wire 1 2! \bin[6]~output_o\ $end
$var wire 1 3! \bin[7]~output_o\ $end
$var wire 1 4! \bin[8]~output_o\ $end
$var wire 1 5! \bin[9]~output_o\ $end
$var wire 1 6! \bin[10]~output_o\ $end
$var wire 1 7! \bin[11]~output_o\ $end
$var wire 1 8! \bin[12]~output_o\ $end
$var wire 1 9! \bin[13]~output_o\ $end
$var wire 1 :! \bin[14]~output_o\ $end
$var wire 1 ;! \bin[15]~output_o\ $end
$var wire 1 <! \HEX00~output_o\ $end
$var wire 1 =! \HEX01~output_o\ $end
$var wire 1 >! \HEX03~output_o\ $end
$var wire 1 ?! \HEX04~output_o\ $end
$var wire 1 @! \HEX05~output_o\ $end
$var wire 1 A! \HEX06~output_o\ $end
$var wire 1 B! \HEX10~output_o\ $end
$var wire 1 C! \HEX11~output_o\ $end
$var wire 1 D! \HEX12~output_o\ $end
$var wire 1 E! \HEX13~output_o\ $end
$var wire 1 F! \HEX14~output_o\ $end
$var wire 1 G! \HEX15~output_o\ $end
$var wire 1 H! \HEX16~output_o\ $end
$var wire 1 I! \HEX20~output_o\ $end
$var wire 1 J! \HEX21~output_o\ $end
$var wire 1 K! \HEX22~output_o\ $end
$var wire 1 L! \HEX23~output_o\ $end
$var wire 1 M! \HEX24~output_o\ $end
$var wire 1 N! \HEX25~output_o\ $end
$var wire 1 O! \HEX26~output_o\ $end
$var wire 1 P! \HEX30~output_o\ $end
$var wire 1 Q! \HEX31~output_o\ $end
$var wire 1 R! \HEX32~output_o\ $end
$var wire 1 S! \HEX33~output_o\ $end
$var wire 1 T! \HEX34~output_o\ $end
$var wire 1 U! \HEX35~output_o\ $end
$var wire 1 V! \HEX36~output_o\ $end
$var wire 1 W! \Clk~input_o\ $end
$var wire 1 X! \Clk~inputclkctrl_outclk\ $end
$var wire 1 Y! \Q[0]~16_combout\ $end
$var wire 1 Z! \Clear~input_o\ $end
$var wire 1 [! \Enable~input_o\ $end
$var wire 1 \! \Q[0]~18_combout\ $end
$var wire 1 ]! \Q[0]~17\ $end
$var wire 1 ^! \Q[1]~19_combout\ $end
$var wire 1 _! \Q[1]~20\ $end
$var wire 1 `! \Q[2]~21_combout\ $end
$var wire 1 a! \Q[2]~22\ $end
$var wire 1 b! \Q[3]~23_combout\ $end
$var wire 1 c! \Q[3]~24\ $end
$var wire 1 d! \Q[4]~25_combout\ $end
$var wire 1 e! \Q[4]~26\ $end
$var wire 1 f! \Q[5]~27_combout\ $end
$var wire 1 g! \Q[5]~28\ $end
$var wire 1 h! \Q[6]~29_combout\ $end
$var wire 1 i! \Q[6]~30\ $end
$var wire 1 j! \Q[7]~31_combout\ $end
$var wire 1 k! \Q[7]~32\ $end
$var wire 1 l! \Q[8]~33_combout\ $end
$var wire 1 m! \Q[8]~34\ $end
$var wire 1 n! \Q[9]~35_combout\ $end
$var wire 1 o! \Q[9]~36\ $end
$var wire 1 p! \Q[10]~37_combout\ $end
$var wire 1 q! \Q[10]~38\ $end
$var wire 1 r! \Q[11]~39_combout\ $end
$var wire 1 s! \Q[11]~40\ $end
$var wire 1 t! \Q[12]~41_combout\ $end
$var wire 1 u! \Q[12]~42\ $end
$var wire 1 v! \Q[13]~43_combout\ $end
$var wire 1 w! \Q[13]~44\ $end
$var wire 1 x! \Q[14]~45_combout\ $end
$var wire 1 y! \Q[14]~46\ $end
$var wire 1 z! \Q[15]~47_combout\ $end
$var wire 1 {! Q [15] $end
$var wire 1 |! Q [14] $end
$var wire 1 }! Q [13] $end
$var wire 1 ~! Q [12] $end
$var wire 1 !" Q [11] $end
$var wire 1 "" Q [10] $end
$var wire 1 #" Q [9] $end
$var wire 1 $" Q [8] $end
$var wire 1 %" Q [7] $end
$var wire 1 &" Q [6] $end
$var wire 1 '" Q [5] $end
$var wire 1 (" Q [4] $end
$var wire 1 )" Q [3] $end
$var wire 1 *" Q [2] $end
$var wire 1 +" Q [1] $end
$var wire 1 ," Q [0] $end
$upscope $end
$upscope $end
$enddefinitions $end
#0
$dumpvars
01
02
13
04
05
06
07
08
09
0:
0;
0<
0=
0>
0?
0@
0A
0B
0C
0D
0E
0F
0G
0H
0I
0J
0K
0L
0M
0N
0O
1P
xQ
1R
1S
1T
1U
1V
1W
1X
0Y
0Z
0k
0l
0m
0n
0o
0p
0q
0r
0s
0t
0u
0v
0w
0x
0y
0z
0{
0|
0}
0~
0!!
0"!
0#!
0$!
0%!
0&!
0'!
0,!
0-!
0.!
0/!
00!
01!
02!
03!
04!
05!
06!
07!
08!
09!
0:!
0;!
0<!
0=!
0>!
0?!
0@!
0A!
0B!
0C!
0D!
0E!
0F!
0G!
0H!
0I!
0J!
0K!
0L!
0M!
0N!
0O!
0P!
0Q!
0R!
0S!
0T!
0U!
0V!
0W!
0X!
1Y!
0Z!
1[!
1\!
0]!
0^!
1_!
0`!
0a!
0b!
1c!
0d!
0e!
0f!
1g!
0h!
0i!
0j!
1k!
0l!
0m!
0n!
1o!
0p!
0q!
0r!
1s!
0t!
0u!
0v!
1w!
0x!
0y!
0z!
0[
0\
0]
0^
0_
0`
0a
0b
0c
0d
0e
0f
0g
0h
0i
0j
0{!
0|!
0}!
0~!
0!"
0""
0#"
0$"
0%"
0&"
0'"
0("
0)"
0*"
0+"
0,"
1(!
1)!
1*!
0+!
0!
0"
0#
0$
0%
0&
0'
0(
0)
0*
0+
0,
0-
0.
0/
00
$end
#25000
12
1Y
1W!
1+!
1X!
1,"
0Y!
1]!
1^!
1,!
1j
10
#50000
02
0Y
0W!
0+!
0X!
#75000
12
1Y
1W!
1+!
1X!
0,"
1+"
0^!
0_!
1Y!
0]!
1^!
1_!
1`!
1-!
0,!
0`!
1i
0j
00
1/
#100000
02
0Y
0W!
0+!
0X!
#125000
12
1Y
1W!
1+!
1X!
1,"
0Y!
1]!
0^!
0_!
1,!
1`!
1j
10
#150000
02
0Y
0W!
0+!
0X!
#175000
12
1Y
1W!
1+!
1X!
0,"
0+"
1*"
0`!
1a!
1^!
1_!
1Y!
0]!
0^!
1`!
0a!
1b!
1.!
0-!
0,!
0b!
1h
0i
0j
00
0/
1.
#200000
02
0Y
0W!
0+!
0X!
#225000
12
1Y
1W!
1+!
1X!
1,"
0Y!
1]!
1^!
1,!
1j
10
#250000
02
0Y
0W!
0+!
0X!
#275000
12
1Y
1W!
1+!
1X!
0,"
1+"
0^!
0_!
1Y!
0]!
1^!
1_!
0`!
1a!
1-!
0,!
1b!
1`!
0a!
1i
0j
00
1/
0b!
#300000
02
0Y
0W!
0+!
0X!
#325000
12
1Y
1W!
1+!
1X!
1,"
0Y!
1]!
0^!
0_!
1,!
0`!
1a!
1j
10
1b!
#350000
02
0Y
0W!
0+!
0X!
#375000
12
1Y
1W!
1+!
1X!
0,"
0+"
0*"
1)"
0b!
0c!
1`!
0a!
1^!
1_!
1Y!
0]!
0^!
0`!
1b!
1c!
1d!
1/!
0.!
0-!
0,!
0d!
1g
0h
0i
0j
00
0/
0.
1-
#400000
02
0Y
0W!
0+!
0X!
#425000
12
1Y
1W!
1+!
1X!
1,"
0Y!
1]!
1^!
1,!
1j
10
#450000
02
0Y
0W!
0+!
0X!
#475000
12
1Y
1W!
1+!
1X!
0,"
1+"
0^!
0_!
1Y!
0]!
1^!
1_!
1`!
1-!
0,!
0`!
1i
0j
00
1/
#500000
02
0Y
0W!
0+!
0X!
#525000
12
1Y
1W!
1+!
1X!
1,"
0Y!
1]!
0^!
0_!
1,!
1`!
1j
10
#550000
02
0Y
0W!
0+!
0X!
#575000
12
1Y
1W!
1+!
1X!
0,"
0+"
1*"
0`!
1a!
1^!
1_!
1Y!
0]!
0^!
1`!
0a!
0b!
0c!
1.!
0-!
0,!
1d!
1b!
1c!
1h
0i
0j
00
0/
1.
0d!
#600000
02
0Y
0W!
0+!
0X!
#625000
12
1Y
1W!
1+!
1X!
1,"
0Y!
1]!
1^!
1,!
1j
10
#650000
02
0Y
0W!
0+!
0X!
#675000
12
1Y
1W!
1+!
1X!
0,"
1+"
0^!
0_!
1Y!
0]!
1^!
1_!
0`!
1a!
1-!
0,!
0b!
0c!
1`!
0a!
1i
0j
00
1/
1b!
1c!
1d!
0d!
#700000
02
0Y
0W!
0+!
0X!
#725000
12
1Y
1W!
1+!
1X!
1,"
0Y!
1]!
0^!
0_!
1,!
0`!
1a!
1j
10
0b!
0c!
1d!
#750000
02
0Y
0W!
0+!
0X!
#775000
12
1Y
1W!
1+!
1X!
0,"
0+"
0*"
0)"
1("
0d!
1e!
1b!
1c!
1`!
0a!
1^!
1_!
1Y!
0]!
0^!
0`!
0b!
1d!
0e!
1f!
10!
0/!
0.!
0-!
0,!
0f!
1f
0g
0h
0i
0j
00
0/
0.
0-
1,
#800000
02
0Y
0W!
0+!
0X!
#825000
12
1Y
1W!
1+!
1X!
1,"
0Y!
1]!
1^!
1,!
1j
10
#850000
02
0Y
0W!
0+!
0X!
#875000
12
1Y
1W!
1+!
1X!
0,"
1+"
0^!
0_!
1Y!
0]!
1^!
1_!
1`!
1-!
0,!
0`!
1i
0j
00
1/
#900000
02
0Y
0W!
0+!
0X!
#925000
12
1Y
1W!
1+!
1X!
1,"
0Y!
1]!
0^!
0_!
1,!
1`!
1j
10
#950000
02
0Y
0W!
0+!
0X!
#975000
12
1Y
1W!
1+!
1X!
0,"
0+"
1*"
0`!
1a!
1^!
1_!
1Y!
0]!
0^!
1`!
0a!
1b!
1.!
0-!
0,!
0b!
1h
0i
0j
00
0/
1.
#1000000
02
0Y
0W!
0+!
0X!
#1025000
12
1Y
1W!
1+!
1X!
1,"
0Y!
1]!
1^!
1,!
1j
10
#1050000
02
0Y
0W!
0+!
0X!
#1075000
12
1Y
1W!
1+!
1X!
0,"
1+"
0^!
0_!
1Y!
0]!
1^!
1_!
0`!
1a!
1-!
0,!
1b!
1`!
0a!
1i
0j
00
1/
0b!
#1100000
02
0Y
0W!
0+!
0X!
#1125000
12
1Y
1W!
1+!
1X!
1,"
0Y!
1]!
0^!
0_!
1,!
0`!
1a!
1j
10
1b!
#1150000
02
0Y
0W!
0+!
0X!
#1175000
12
1Y
1W!
1+!
1X!
0,"
0+"
0*"
1)"
0b!
0c!
1`!
0a!
1^!
1_!
1Y!
0]!
0^!
0`!
1b!
1c!
0d!
1e!
1/!
0.!
0-!
0,!
1f!
1d!
0e!
1g
0h
0i
0j
00
0/
0.
1-
0f!
#1200000
02
0Y
0W!
0+!
0X!
#1225000
12
1Y
1W!
1+!
1X!
1,"
0Y!
1]!
1^!
1,!
1j
10
#1250000
02
0Y
0W!
0+!
0X!
#1275000
12
1Y
1W!
1+!
1X!
0,"
1+"
0^!
0_!
1Y!
0]!
1^!
1_!
1`!
1-!
0,!
0`!
1i
0j
00
1/
#1300000
02
0Y
0W!
0+!
0X!
#1325000
12
1Y
1W!
1+!
1X!
1,"
0Y!
1]!
0^!
0_!
1,!
1`!
1j
10
#1350000
02
0Y
0W!
0+!
0X!
#1375000
12
1Y
1W!
1+!
1X!
0,"
0+"
1*"
0`!
1a!
1^!
1_!
1Y!
0]!
0^!
1`!
0a!
0b!
0c!
1.!
0-!
0,!
0d!
1e!
1b!
1c!
1h
0i
0j
00
0/
1.
1d!
0e!
1f!
0f!
#1400000
02
0Y
0W!
0+!
0X!
#1425000
12
1Y
1W!
1+!
1X!
1,"
0Y!
1]!
1^!
1,!
1j
10
#1450000
02
0Y
0W!
0+!
0X!
#1475000
12
1Y
1W!
1+!
1X!
0,"
1+"
0^!
0_!
1Y!
0]!
1^!
1_!
0`!
1a!
1-!
0,!
0b!
0c!
1`!
0a!
1i
0j
00
1/
1b!
1c!
0d!
1e!
1f!
1d!
0e!
0f!
#1500000
02
0Y
0W!
0+!
0X!
#1525000
12
1Y
1W!
1+!
1X!
1,"
0Y!
1]!
0^!
0_!
1,!
0`!
1a!
1j
10
0b!
0c!
0d!
1e!
1f!
#1550000
02
0Y
0W!
0+!
0X!
#1575000
12
1Y
1W!
1+!
1X!
0,"
0+"
0*"
0)"
0("
1'"
0f!
0g!
1d!
0e!
1b!
1c!
1`!
0a!
1^!
1_!
1Y!
0]!
0^!
0`!
0b!
0d!
1f!
1g!
1h!
11!
00!
0/!
0.!
0-!
0,!
0h!
1e
0f
0g
0h
0i
0j
00
0/
0.
0-
0,
1+
#1600000
02
0Y
0W!
0+!
0X!
#1625000
12
1Y
1W!
1+!
1X!
1,"
0Y!
1]!
1^!
1,!
1j
10
#1650000
02
0Y
0W!
0+!
0X!
#1675000
12
1Y
1W!
1+!
1X!
0,"
1+"
0^!
0_!
1Y!
0]!
1^!
1_!
1`!
1-!
0,!
0`!
1i
0j
00
1/
#1700000
02
0Y
0W!
0+!
0X!
#1725000
12
1Y
1W!
1+!
1X!
1,"
0Y!
1]!
0^!
0_!
1,!
1`!
1j
10
#1750000
02
0Y
0W!
0+!
0X!
#1775000
12
1Y
1W!
1+!
1X!
0,"
0+"
1*"
0`!
1a!
1^!
1_!
1Y!
0]!
0^!
1`!
0a!
1b!
1.!
0-!
0,!
0b!
1h
0i
0j
00
0/
1.
#1800000
02
0Y
0W!
0+!
0X!
#1825000
12
1Y
1W!
1+!
1X!
1,"
0Y!
1]!
1^!
1,!
1j
10
#1850000
02
0Y
0W!
0+!
0X!
#1875000
12
1Y
1W!
1+!
1X!
0,"
1+"
0^!
0_!
1Y!
0]!
1^!
1_!
0`!
1a!
1-!
0,!
1b!
1`!
0a!
1i
0j
00
1/
0b!
#1900000
02
0Y
0W!
0+!
0X!
#1925000
12
1Y
1W!
1+!
1X!
1,"
0Y!
1]!
0^!
0_!
1,!
0`!
1a!
1j
10
1b!
#1950000
02
0Y
0W!
0+!
0X!
#1975000
12
1Y
1W!
1+!
1X!
0,"
0+"
0*"
1)"
0b!
0c!
1`!
0a!
1^!
1_!
1Y!
0]!
0^!
0`!
1b!
1c!
1d!
1/!
0.!
0-!
0,!
0d!
1g
0h
0i
0j
00
0/
0.
1-
#2000000
02
0Y
0W!
0+!
0X!
#2025000
12
1Y
1W!
1+!
1X!
1,"
0Y!
1]!
1^!
1,!
1j
10
#2050000
02
0Y
0W!
0+!
0X!
#2075000
12
1Y
1W!
1+!
1X!
0,"
1+"
0^!
0_!
1Y!
0]!
1^!
1_!
1`!
1-!
0,!
0`!
1i
0j
00
1/
#2100000
02
0Y
0W!
0+!
0X!
#2125000
12
1Y
1W!
1+!
1X!
1,"
0Y!
1]!
0^!
0_!
1,!
1`!
1j
10
#2150000
02
0Y
0W!
0+!
0X!
#2175000
12
1Y
1W!
1+!
1X!
0,"
0+"
1*"
0`!
1a!
1^!
1_!
1Y!
0]!
0^!
1`!
0a!
0b!
0c!
1.!
0-!
0,!
1d!
1b!
1c!
1h
0i
0j
00
0/
1.
0d!
#2200000
02
0Y
0W!
0+!
0X!
#2225000
12
1Y
1W!
1+!
1X!
1,"
0Y!
1]!
1^!
1,!
1j
10
#2250000
02
0Y
0W!
0+!
0X!
#2275000
12
1Y
1W!
1+!
1X!
0,"
1+"
0^!
0_!
1Y!
0]!
1^!
1_!
0`!
1a!
1-!
0,!
0b!
0c!
1`!
0a!
1i
0j
00
1/
1b!
1c!
1d!
0d!
#2300000
02
0Y
0W!
0+!
0X!
#2325000
12
1Y
1W!
1+!
1X!
1,"
0Y!
1]!
0^!
0_!
1,!
0`!
1a!
1j
10
0b!
0c!
1d!
#2350000
02
0Y
0W!
0+!
0X!
#2375000
12
1Y
1W!
1+!
1X!
0,"
0+"
0*"
0)"
1("
0d!
1e!
1b!
1c!
1`!
0a!
1^!
1_!
1Y!
0]!
0^!
0`!
0b!
1d!
0e!
0f!
0g!
10!
0/!
0.!
0-!
0,!
1h!
1f!
1g!
1f
0g
0h
0i
0j
00
0/
0.
0-
1,
0h!
#2400000
02
0Y
0W!
0+!
0X!
#2425000
12
1Y
1W!
1+!
1X!
1,"
0Y!
1]!
1^!
1,!
1j
10
#2450000
02
0Y
0W!
0+!
0X!
#2475000
12
1Y
1W!
1+!
1X!
0,"
1+"
0^!
0_!
1Y!
0]!
1^!
1_!
1`!
1-!
0,!
0`!
1i
0j
00
1/
#2500000
02
0Y
0W!
0+!
0X!
#2525000
12
1Y
1W!
1+!
1X!
1,"
0Y!
1]!
0^!
0_!
1,!
1`!
1j
10
#2550000
02
0Y
0W!
0+!
0X!
#2575000
12
1Y
1W!
1+!
1X!
0,"
0+"
1*"
0`!
1a!
1^!
1_!
1Y!
0]!
0^!
1`!
0a!
1b!
1.!
0-!
0,!
0b!
1h
0i
0j
00
0/
1.
#2600000
02
0Y
0W!
0+!
0X!
#2625000
12
1Y
1W!
1+!
1X!
1,"
0Y!
1]!
1^!
1,!
1j
10
#2650000
02
0Y
0W!
0+!
0X!
#2675000
12
1Y
1W!
1+!
1X!
0,"
1+"
0^!
0_!
1Y!
0]!
1^!
1_!
0`!
1a!
1-!
0,!
1b!
1`!
0a!
1i
0j
00
1/
0b!
#2700000
02
0Y
0W!
0+!
0X!
#2725000
12
1Y
1W!
1+!
1X!
1,"
0Y!
1]!
0^!
0_!
1,!
0`!
1a!
1j
10
1b!
#2750000
02
0Y
0W!
0+!
0X!
#2775000
12
1Y
1W!
1+!
1X!
0,"
0+"
0*"
1)"
0b!
0c!
1`!
0a!
1^!
1_!
1Y!
0]!
0^!
0`!
1b!
1c!
0d!
1e!
1/!
0.!
0-!
0,!
0f!
0g!
1d!
0e!
1g
0h
0i
0j
00
0/
0.
1-
1f!
1g!
1h!
0h!
#2800000
02
0Y
0W!
0+!
0X!
#2825000
12
1Y
1W!
1+!
1X!
1,"
0Y!
1]!
1^!
1,!
1j
10
#2850000
02
0Y
0W!
0+!
0X!
#2875000
12
1Y
1W!
1+!
1X!
0,"
1+"
0^!
0_!
1Y!
0]!
1^!
1_!
1`!
1-!
0,!
0`!
1i
0j
00
1/
#2900000
02
0Y
0W!
0+!
0X!
#2925000
12
1Y
1W!
1+!
1X!
1,"
0Y!
1]!
0^!
0_!
1,!
1`!
1j
10
#2950000
02
0Y
0W!
0+!
0X!
#2975000
12
1Y
1W!
1+!
1X!
0,"
0+"
1*"
0`!
1a!
1^!
1_!
1Y!
0]!
0^!
1`!
0a!
0b!
0c!
1.!
0-!
0,!
0d!
1e!
1b!
1c!
1h
0i
0j
00
0/
1.
1d!
0e!
0f!
0g!
1h!
1f!
1g!
0h!
#3000000
02
0Y
0W!
0+!
0X!
#3025000
12
1Y
1W!
1+!
1X!
1,"
0Y!
1]!
1^!
1,!
1j
10
#3050000
02
0Y
0W!
0+!
0X!
#3075000
12
1Y
1W!
1+!
1X!
0,"
1+"
0^!
0_!
1Y!
0]!
1^!
1_!
0`!
1a!
1-!
0,!
0b!
0c!
1`!
0a!
1i
0j
00
1/
1b!
1c!
0d!
1e!
0f!
0g!
1d!
0e!
1f!
1g!
1h!
0h!
#3100000
02
0Y
0W!
0+!
0X!
#3125000
12
1Y
1W!
1+!
1X!
1,"
0Y!
1]!
0^!
0_!
1,!
0`!
1a!
1j
10
0b!
0c!
0d!
1e!
0f!
0g!
1h!
#3150000
02
0Y
0W!
0+!
0X!
#3175000
12
1Y
1W!
1+!
1X!
0,"
0+"
0*"
0)"
0("
0'"
1&"
0h!
1i!
1f!
1g!
1d!
0e!
1b!
1c!
1`!
0a!
1^!
1_!
1Y!
0]!
0^!
0`!
0b!
0d!
0f!
1h!
0i!
1j!
12!
01!
00!
0/!
0.!
0-!
0,!
0j!
1d
0e
0f
0g
0h
0i
0j
00
0/
0.
0-
0,
0+
1*
#3200000
02
0Y
0W!
0+!
0X!
#3225000
12
1Y
1W!
1+!
1X!
1,"
0Y!
1]!
1^!
1,!
1j
10
#3250000
02
0Y
0W!
0+!
0X!
#3275000
12
1Y
1W!
1+!
1X!
0,"
1+"
0^!
0_!
1Y!
0]!
1^!
1_!
1`!
1-!
0,!
0`!
1i
0j
00
1/
#3300000
02
0Y
0W!
0+!
0X!
#3325000
12
1Y
1W!
1+!
1X!
1,"
0Y!
1]!
0^!
0_!
1,!
1`!
1j
10
#3350000
02
0Y
0W!
0+!
0X!
#3375000
12
1Y
1W!
1+!
1X!
0,"
0+"
1*"
0`!
1a!
1^!
1_!
1Y!
0]!
0^!
1`!
0a!
1b!
1.!
0-!
0,!
0b!
1h
0i
0j
00
0/
1.
#3400000
02
0Y
0W!
0+!
0X!
#3425000
12
1Y
1W!
1+!
1X!
1,"
0Y!
1]!
1^!
1,!
1j
10
#3450000
02
0Y
0W!
0+!
0X!
#3475000
12
1Y
1W!
1+!
1X!
0,"
1+"
0^!
0_!
1Y!
0]!
1^!
1_!
0`!
1a!
1-!
0,!
1b!
1`!
0a!
1i
0j
00
1/
0b!
#3500000
02
0Y
0W!
0+!
0X!
#3525000
12
1Y
1W!
1+!
1X!
1,"
0Y!
1]!
0^!
0_!
1,!
0`!
1a!
1j
10
1b!
#3550000
02
0Y
0W!
0+!
0X!
#3575000
12
1Y
1W!
1+!
1X!
0,"
0+"
0*"
1)"
0b!
0c!
1`!
0a!
1^!
1_!
1Y!
0]!
0^!
0`!
1b!
1c!
1d!
1/!
0.!
0-!
0,!
0d!
1g
0h
0i
0j
00
0/
0.
1-
#3600000
02
0Y
0W!
0+!
0X!
#3625000
12
1Y
1W!
1+!
1X!
1,"
0Y!
1]!
1^!
1,!
1j
10
#3650000
02
0Y
0W!
0+!
0X!
#3675000
12
1Y
1W!
1+!
1X!
0,"
1+"
0^!
0_!
1Y!
0]!
1^!
1_!
1`!
1-!
0,!
0`!
1i
0j
00
1/
#3700000
02
0Y
0W!
0+!
0X!
#3725000
12
1Y
1W!
1+!
1X!
1,"
0Y!
1]!
0^!
0_!
1,!
1`!
1j
10
#3750000
02
0Y
0W!
0+!
0X!
#3775000
12
1Y
1W!
1+!
1X!
0,"
0+"
1*"
0`!
1a!
1^!
1_!
1Y!
0]!
0^!
1`!
0a!
0b!
0c!
1.!
0-!
0,!
1d!
1b!
1c!
1h
0i
0j
00
0/
1.
0d!
#3800000
02
0Y
0W!
0+!
0X!
#3825000
12
1Y
1W!
1+!
1X!
1,"
0Y!
1]!
1^!
1,!
1j
10
#3850000
02
0Y
0W!
0+!
0X!
#3875000
12
1Y
1W!
1+!
1X!
0,"
1+"
0^!
0_!
1Y!
0]!
1^!
1_!
0`!
1a!
1-!
0,!
0b!
0c!
1`!
0a!
1i
0j
00
1/
1b!
1c!
1d!
0d!
#3900000
02
0Y
0W!
0+!
0X!
#3925000
12
1Y
1W!
1+!
1X!
1,"
0Y!
1]!
0^!
0_!
1,!
0`!
1a!
1j
10
0b!
0c!
1d!
#3950000
02
0Y
0W!
0+!
0X!
#3975000
12
1Y
1W!
1+!
1X!
0,"
0+"
0*"
0)"
1("
0d!
1e!
1b!
1c!
1`!
0a!
1^!
1_!
1Y!
0]!
0^!
0`!
0b!
1d!
0e!
1f!
10!
0/!
0.!
0-!
0,!
0f!
1f
0g
0h
0i
0j
00
0/
0.
0-
1,
#4000000
02
0Y
0W!
0+!
0X!
#4025000
12
1Y
1W!
1+!
1X!
1,"
0Y!
1]!
1^!
1,!
1j
10
#4050000
02
0Y
0W!
0+!
0X!
#4075000
12
1Y
1W!
1+!
1X!
0,"
1+"
0^!
0_!
1Y!
0]!
1^!
1_!
1`!
1-!
0,!
0`!
1i
0j
00
1/
#4100000
02
0Y
0W!
0+!
0X!
#4125000
12
1Y
1W!
1+!
1X!
1,"
0Y!
1]!
0^!
0_!
1,!
1`!
1j
10
#4150000
02
0Y
0W!
0+!
0X!
#4175000
12
1Y
1W!
1+!
1X!
0,"
0+"
1*"
0`!
1a!
1^!
1_!
1Y!
0]!
0^!
1`!
0a!
1b!
1.!
0-!
0,!
0b!
1h
0i
0j
00
0/
1.
#4200000
02
0Y
0W!
0+!
0X!
#4225000
12
1Y
1W!
1+!
1X!
1,"
0Y!
1]!
1^!
1,!
1j
10
#4250000
02
0Y
0W!
0+!
0X!
#4275000
12
1Y
1W!
1+!
1X!
0,"
1+"
0^!
0_!
1Y!
0]!
1^!
1_!
0`!
1a!
1-!
0,!
1b!
1`!
0a!
1i
0j
00
1/
0b!
#4300000
02
0Y
0W!
0+!
0X!
#4325000
12
1Y
1W!
1+!
1X!
1,"
0Y!
1]!
0^!
0_!
1,!
0`!
1a!
1j
10
1b!
#4350000
02
0Y
0W!
0+!
0X!
#4375000
12
1Y
1W!
1+!
1X!
0,"
0+"
0*"
1)"
0b!
0c!
1`!
0a!
1^!
1_!
1Y!
0]!
0^!
0`!
1b!
1c!
0d!
1e!
1/!
0.!
0-!
0,!
1f!
1d!
0e!
1g
0h
0i
0j
00
0/
0.
1-
0f!
#4400000
02
0Y
0W!
0+!
0X!
#4425000
12
1Y
1W!
1+!
1X!
1,"
0Y!
1]!
1^!
1,!
1j
10
#4450000
02
0Y
0W!
0+!
0X!
#4475000
12
1Y
1W!
1+!
1X!
0,"
1+"
0^!
0_!
1Y!
0]!
1^!
1_!
1`!
1-!
0,!
0`!
1i
0j
00
1/
#4500000
02
0Y
0W!
0+!
0X!
#4525000
12
1Y
1W!
1+!
1X!
1,"
0Y!
1]!
0^!
0_!
1,!
1`!
1j
10
#4550000
02
0Y
0W!
0+!
0X!
